{
	"homepage": "https://mods.curse.com/mc-mods/minecraft/261354-hacker-voice-im-in-hvii",
	"promos": {
		"1.12-latest": "1.0.1",
		"1.12-recommended": "1.0.1",
		"1.11.2-latest": "1.0.1",
		"1.11.2-recommended": "1.0.1",
		"1.10.2-latest": "1.0.0",
		"1.10.2-recommended": "1.0.0"
	},
	"1.11.2": {
		"1.0.1": "Switched the P.A.T.S. Keybind to affect everything; when it is in toggle mode, it now remembers your setting when you restart the game."
	},
	"1.10.2": {
		"1.0.0": "Initial Release"
	}
}